SDS 348 Project 1: NBA Player Efficiency and Salaries
…
## # A tibble: 6 x 4
##   player            raptor_total `2019/20 Salary` `2019/20 Salary/Min`
##   <chr>                    <dbl>            <dbl>                <dbl>
## 1 Derrick White           3.40            1948080                1162.
## 2 LaMarcus Aldridge       0.120          26000000               14823.
## 3 DeMar DeRozan           0.0980         27739975               11978.
## 4 Rudy Gay               -0.133          14500000                9925.
## 5 Dejounte Murray        -0.577           2321735                1376.
## 6 Bryn Forbes            -3.37            2875000                1821.

NBA1 %>% group_by(team) %>% summarize(mean_raptor_total=mean(raptor_total), sd_raptor_total=sd(raptor_total))

## `summarise()` ungrouping output (override with `.groups` argument)

## # A tibble: 30 x 3
##    team  mean_raptor_total sd_raptor_total
##    <chr>             <dbl>           <dbl>
##  1 ATL              -1.47            3.48 
##  2 BOS               2.66            1.84 
##  3 BRK              -0.169           1.76 
##  4 CHA              -2.60            0.684
##  5 CHI              -1.53            1.46 
##  6 CLE              -2.56            2.51 
##  7 DAL               1.68            2.57 
##  8 DEN               0.814           2.84 
##  9 DET              -0.617           0.909
## 10 GSW              -2.43            2.46 
## # … with 20 more rows
…
NBA1 %>% summarize_all(n_distinct)

## # A tibble: 1 x 9
##   player  team minutes_played raptor_offense raptor_defense raptor_total
##    <int> <int>          <int>          <int>          <int>        <int>
## 1    141    30            130            141            141          141
## # … with 3 more variables: `2019/20 Salary` <int>, `2020/21 Salary` <int>,
## #   `2019/20 Salary/Min` <int>

NBA1 %>% group_by(team) %>% summarize_all(n_distinct) %>% select(-player)

## # A tibble: 30 x 8
##    team  minutes_played raptor_offense raptor_defense raptor_total
##    <chr>          <int>          <int>          <int>        <int>
##  1 ATL                4              4              4            4
##  2 BOS                6              6              6            6
##  3 BRK                5              5              5            5
##  4 CHA                2              2              2            2
##  5 CHI                5              5              5            5
##  6 CLE                5              5              5            5
##  7 DAL                6              6              6            6
##  8 DEN                6              6              6            6
##  9 DET                4              4              4            4
## 10 GSW                3              3              3            3
## # … with 20 more rows, and 3 more variables: `2019/20 Salary` <int>, `2020/21
## #   Salary` <int>, `2019/20 Salary/Min` <int>

NBA1 %>% summarize_if(is.numeric, mean)

## # A tibble: 1 x 7
##   minutes_played raptor_offense raptor_defense raptor_total `2019/20 Salary`
##            <dbl>          <dbl>          <dbl>        <dbl>            <dbl>
## 1          1867.          0.776        -0.0558        0.720        12892397.
## # … with 2 more variables: `2020/21 Salary` <dbl>, `2019/20 Salary/Min` <dbl>

NBA1 %>% group_by(team) %>% summarize_if(is.numeric,mean)

## # A tibble: 30 x 8
##    team  minutes_played raptor_offense raptor_defense raptor_total
##    <chr>          <dbl>          <dbl>          <dbl>        <dbl>
##  1 ATL            1862.          0.313        -1.78         -1.47 
##  2 BOS            1861           1.93          0.728         2.66 
##  3 BRK            1911.          0.109        -0.277        -0.169
##  4 CHA            2080.         -1.03         -1.57         -2.60 
##  5 CHI            1744          -0.708        -0.818        -1.53 
##  6 CLE            1876.         -0.582        -1.98         -2.56 
##  7 DAL            1836.          1.66          0.0222        1.68 
##  8 DEN            1911.          0.825        -0.0110        0.814
##  9 DET            1658.         -0.854         0.237        -0.617
## 10 GSW            1531          -0.877        -1.55         -2.43 
## # … with 20 more rows, and 3 more variables: `2019/20 Salary` <dbl>, `2020/21
## #   Salary` <dbl>, `2019/20 Salary/Min` <dbl>
…
NBA1 %>% summarize_if(is.numeric,sd)

## # A tibble: 1 x 7
##   minutes_played raptor_offense raptor_defense raptor_total `2019/20 Salary`
##            <dbl>          <dbl>          <dbl>        <dbl>            <dbl>
## 1           281.           2.35           1.96         2.99        10813225.
## # … with 2 more variables: `2020/21 Salary` <dbl>, `2019/20 Salary/Min` <dbl>

NBA1 %>% group_by(team) %>% summarize_if(is.numeric,sd)

## # A tibble: 30 x 8
##    team  minutes_played raptor_offense raptor_defense raptor_total
##    <chr>          <dbl>          <dbl>          <dbl>        <dbl>
##  1 ATL            257.           4.63          1.43          3.48 
##  2 BOS            240.           2.02          1.35          1.84 
##  3 BRK            151.           2.23          1.74          1.76 
##  4 CHA            120.           0.597         0.0865        0.684
##  5 CHI            238.           1.50          1.21          1.46 
##  6 CLE            165.           1.93          2.32          2.51 
##  7 DAL            231.           3.15          1.52          2.57 
##  8 DEN            234.           2.37          1.74          2.84 
##  9 DET             30.6          1.44          2.11          0.909
## 10 GSW            116.           0.468         2.00          2.46 
## # … with 20 more rows, and 3 more variables: `2019/20 Salary` <dbl>, `2020/21
## #   Salary` <dbl>, `2019/20 Salary/Min` <dbl>

NBA1 %>% summarize_if(is.numeric,var)

## # A tibble: 1 x 7
##   minutes_played raptor_offense raptor_defense raptor_total `2019/20 Salary`
##            <dbl>          <dbl>          <dbl>        <dbl>            <dbl>
## 1         79196.           5.52           3.85         8.96 116925829393985.
## # … with 2 more variables: `2020/21 Salary` <dbl>, `2019/20 Salary/Min` <dbl>

NBA1 %>% group_by(team) %>% summarize_if(is.numeric,var) %>% arrange(desc(raptor_total))

## # A tibble: 30 x 8
##    team  minutes_played raptor_offense raptor_defense raptor_total
##    <chr>          <dbl>          <dbl>          <dbl>        <dbl>
##  1 HOU          176477.          16.3            4.39        34.0 
##  2 POR          204204.          19.2            5.29        27.0 
##  3 LAC           45738           10.0            6.30        25.3 
##  4 WAS          101850.          15.4            2.66        17.6 
##  5 LAL          107372.           9.86           2.94        15.3 
##  6 NYK          112144            2.43           4.35        13.2 
##  7 ATL           66008.          21.5            2.05        12.1 
##  8 MIL           23567.           8.11           1.67         8.41
##  9 MIA          108520.           4.16           2.46         8.09
## 10 DEN           54769.           5.61           3.03         8.08
## # … with 20 more rows, and 3 more variables: `2019/20 Salary` <dbl>, `2020/21
## #   Salary` <dbl>, `2019/20 Salary/Min` <dbl>
…
## # A tibble: 1 x 14
##   minutes_played_… raptor_offense_… raptor_defense_… raptor_total_min
##              <dbl>            <dbl>            <dbl>            <dbl>
## 1             1411            -2.95            -4.65            -6.55
## # … with 10 more variables: `2019/20 Salary_min` <dbl>, `2020/21
## #   Salary_min` <dbl>, `2019/20 Salary/Min_min` <dbl>,
## #   minutes_played_max <dbl>, raptor_offense_max <dbl>,
## #   raptor_defense_max <dbl>, raptor_total_max <dbl>, `2019/20
## #   Salary_max` <dbl>, `2020/21 Salary_max` <dbl>, `2019/20
## #   Salary/Min_max` <dbl>

NBA1 %>% group_by(team) %>% summarize_if(is.numeric, list(min=min,max=max)) %>% mutate_if(is.numeric,round) %>% pivot_longer(-1)

## # A tibble: 420 x 3
##    team  name                     value
##    <chr> <chr>                    <dbl>
##  1 ATL   minutes_played_min        1551
##  2 ATL   raptor_offense_min          -3
##  3 ATL   raptor_defense_min          -3
##  4 ATL   raptor_total_min            -4
##  5 ATL   2019/20 Salary_min     2636280
##  6 ATL   2020/21 Salary_min     2761920
##  7 ATL   2019/20 Salary/Min_min    1498
##  8 ATL   minutes_played_max        2120
##  9 ATL   raptor_offense_max           7
## 10 ATL   raptor_defense_max           0
## # … with 410 more rows

NBA1 %>% summarize_if(is.numeric, list(Q3=quantile), probs=.75)

## # A tibble: 1 x 7
##   minutes_played_… raptor_offense_… raptor_defense_… raptor_total_Q3
##              <dbl>            <dbl>            <dbl>           <dbl>
## 1             2066             1.64             1.55            2.32
## # … with 3 more variables: `2019/20 Salary_Q3` <dbl>, `2020/21
## #   Salary_Q3` <dbl>, `2019/20 Salary/Min_Q3` <dbl>

NBA1 %>% group_by(team) %>% summarize_if(is.numeric, list(Q3=quantile), probs=.75) %>% mutate_if(is.numeric,round) %>% pivot_longer(-1)

## # A tibble: 210 x 3
##    team  name                    value
##    <chr> <chr>                   <dbl>
##  1 ATL   minutes_played_Q3        2044
##  2 ATL   raptor_offense_Q3           1
##  3 ATL   raptor_defense_Q3          -1
##  4 ATL   raptor_total_Q3            -1
##  5 ATL   2019/20 Salary_Q3     6471840
##  6 ATL   2020/21 Salary_Q3     6784350
##  7 ATL   2019/20 Salary/Min_Q3    3095
##  8 BOS   minutes_played_Q3        1930
##  9 BOS   raptor_offense_Q3           3
## 10 BOS   raptor_defense_Q3           2
## # … with 200 more rows

NBA1 %>% summarize(count=n())

## # A tibble: 1 x 1
##   count
##   <int>
## 1   141

NBA1 %>% group_by(team) %>% summarize(count=n())

## `summarise()` ungrouping output (override with `.groups` argument)

## # A tibble: 30 x 2
##    team  count
##    <chr> <int>
##  1 ATL       4
##  2 BOS       6
##  3 BRK       5
##  4 CHA       2
##  5 CHI       5
##  6 CLE       5
##  7 DAL       6
##  8 DEN       6
##  9 DET       4
## 10 GSW       3
## # … with 20 more rows
…
